module gitlab.com/iMil/cbg

go 1.21

toolchain go1.22.2

require (
	github.com/charmbracelet/glamour v0.7.0
	github.com/samber/go-gpt-3-encoder v0.3.1
	github.com/sashabaranov/go-openai v1.24.0
	github.com/spf13/viper v1.18.2
)

require (
	github.com/alecthomas/chroma/v2 v2.13.0 // indirect
	github.com/aymanbagabas/go-osc52/v2 v2.0.1 // indirect
	github.com/aymerick/douceur v0.2.0 // indirect
	github.com/dlclark/regexp2 v1.11.0 // indirect
	github.com/fsnotify/fsnotify v1.7.0 // indirect
	github.com/gorilla/css v1.0.1 // indirect
	github.com/hashicorp/hcl v1.0.0 // indirect
	github.com/liushuangls/go-anthropic v1.6.0 // indirect
	github.com/liushuangls/go-anthropic/v2 v2.4.1 // indirect
	github.com/lucasb-eyer/go-colorful v1.2.0 // indirect
	github.com/magiconair/properties v1.8.7 // indirect
	github.com/mattn/go-isatty v0.0.20 // indirect
	github.com/mattn/go-runewidth v0.0.15 // indirect
	github.com/microcosm-cc/bluemonday v1.0.26 // indirect
	github.com/mitchellh/mapstructure v1.5.0 // indirect
	github.com/muesli/reflow v0.3.0 // indirect
	github.com/muesli/termenv v0.15.2 // indirect
	github.com/olekukonko/tablewriter v0.0.5 // indirect
	github.com/pelletier/go-toml/v2 v2.2.2 // indirect
	github.com/rivo/uniseg v0.4.7 // indirect
	github.com/sagikazarmark/locafero v0.4.0 // indirect
	github.com/sagikazarmark/slog-shim v0.1.0 // indirect
	github.com/samber/lo v1.39.0 // indirect
	github.com/sourcegraph/conc v0.3.0 // indirect
	github.com/spf13/afero v1.11.0 // indirect
	github.com/spf13/cast v1.6.0 // indirect
	github.com/spf13/pflag v1.0.5 // indirect
	github.com/subosito/gotenv v1.6.0 // indirect
	github.com/yuin/goldmark v1.7.1 // indirect
	github.com/yuin/goldmark-emoji v1.0.2 // indirect
	go.uber.org/multierr v1.11.0 // indirect
	golang.org/x/exp v0.0.0-20240506185415-9bf2ced13842 // indirect
	golang.org/x/net v0.25.0 // indirect
	golang.org/x/sys v0.20.0 // indirect
	golang.org/x/text v0.15.0 // indirect
	gopkg.in/ini.v1 v1.67.0 // indirect
	gopkg.in/yaml.v3 v3.0.1 // indirect
)
